<?xml version="1.0" encoding="UTF-8" standalone="no"?>
<!-- Created with Inkscape (http://www.inkscape.org/) -->

<svg
   id="svg2"
   sodipodi:docname="dontshipwip.svg"
   viewBox="0 0 318.56 289.51998"
   sodipodi:version="0.32"
   version="1.0"
   inkscape:version="1.1.2 (0a00cf5339, 2022-02-04)"
   inkscape:export-filename="/home/spaetz/src/open-letter/static/dontshipwip.png"
   inkscape:export-xdpi="100.2708"
   inkscape:export-ydpi="100.2708"
   width="117.98518"
   height="107.22962"
   xmlns:inkscape="http://www.inkscape.org/namespaces/inkscape"
   xmlns:sodipodi="http://sodipodi.sourceforge.net/DTD/sodipodi-0.dtd"
   xmlns="http://www.w3.org/2000/svg"
   xmlns:svg="http://www.w3.org/2000/svg"
   xmlns:rdf="http://www.w3.org/1999/02/22-rdf-syntax-ns#"
   xmlns:cc="http://creativecommons.org/ns#"
   xmlns:dc="http://purl.org/dc/elements/1.1/">
  <defs
     id="defs9618" />
  <sodipodi:namedview
     id="base"
     bordercolor="#666666"
     inkscape:pageshadow="2"
     inkscape:window-y="23"
     pagecolor="#ffffff"
     inkscape:window-height="971"
     inkscape:zoom="1"
     inkscape:window-x="26"
     borderopacity="1.0"
     inkscape:current-layer="layer1"
     inkscape:cx="150"
     inkscape:cy="200.5"
     showguides="true"
     inkscape:guide-bbox="true"
     inkscape:window-width="1390"
     inkscape:pageopacity="0.0"
     inkscape:document-units="px"
     inkscape:pagecheckerboard="0"
     showgrid="false"
     inkscape:window-maximized="0"
     fit-margin-top="0"
     fit-margin-left="0"
     fit-margin-right="0"
     fit-margin-bottom="0"
     scale-x="2.7" />
  <g
     id="layer1"
     inkscape:label="Layer 1"
     inkscape:groupmode="layer"
     transform="translate(-3.4012999,-7.3311994)">
    <g
       id="g3962"
       transform="translate(-0.8051,-6.4408)">
      <rect
         id="rect1336"
         style="fill:#ffff00;stroke:#000000;stroke-width:10;stroke-linejoin:round"
         rx="0"
         ry="0"
         height="279.51999"
         width="308.56"
         y="18.771999"
         x="9.2063999" />
      <g
         id="g7457"
         transform="translate(-195.5,-152.1)">
        <path
           id="path2224"
           sodipodi:nodetypes="ccccccc"
           style="fill:#000000;fill-rule:evenodd;stroke:#000000;stroke-width:1px"
           d="m 323.64,396.82 h 134.93 c -7.12,-19.07 -15.71,-5.79 -25.34,-16.79 -1.74,-21.77 -17.36,-23.06 -17.36,-23.06 -15.94,-14.23 -13.36,-11.28 -21.06,-11.39 -20.5,-0.28 -19.88,26.8 -36.72,26.19 -16.8,-0.57 -13.1,16.51 -34.45,25.05 z" />
        <path
           id="path3113"
           sodipodi:nodetypes="ccc"
           style="fill:none;stroke:#000000;stroke-width:22;stroke-linecap:round"
           d="m 253.9,386 11.11,-48.1 1.28,-41.06" />
        <path
           id="path3988"
           style="fill:none;stroke:#000000;stroke-width:22;stroke-linecap:round"
           d="m 291.76,386 23.06,-48.1 -23.06,-37.29 -13.38,-9.39" />
        <path
           id="path4875"
           sodipodi:nodetypes="cccccc"
           style="fill:#000000;fill-rule:evenodd;stroke:#000000;stroke-width:1px"
           d="m 259.6,288.65 53.94,-58.06 c 0,0 1.49,-1.85 6.97,-1.85 l 28.18,33.16 -50.1,31.31 z" />
        <path
           id="path5758"
           sodipodi:nodetypes="ccc"
           style="fill:none;stroke:#000000;stroke-width:14;stroke-linecap:round"
           d="m 315.25,232.51 -34.87,0.35 -14.59,31.24" />
        <path
           id="path6637"
           sodipodi:nodetypes="cc"
           style="fill:none;stroke:#000000;stroke-width:14;stroke-linecap:round"
           d="M 318.31,305.45 343.57,265.9" />
        <path
           id="path1334"
           sodipodi:nodetypes="ccc"
           style="fill:none;stroke:#000000;stroke-width:6;stroke-linecap:round"
           d="M 258.39,252.5 376.87,362.38" />
        <circle
           id="path3082"
           style="fill:#000000;stroke:#000000;stroke-width:6;stroke-linecap:round;stroke-linejoin:round"
           transform="translate(-14.517,11.671)"
           cx="368.61768"
           cy="216.35435"
           r="17.078812" />
      </g>
    </g>
    <g
       aria-label="Work
in
progress
"
       id="text13199"
       style="font-size:34.6667px;text-align:center;text-anchor:middle">
      <path
         d="m 234.20409,51.180092 q 0.832,0 1.52534,0.658668 0.728,0.624 0.728,1.594668 0,0.312 -0.104,0.693334 l -6.82934,20.106685 q -0.208,0.589334 -0.728,0.936001 -0.52001,0.346667 -1.14401,0.381333 -0.624,0 -1.17866,-0.346667 -0.55467,-0.346667 -0.86667,-1.005334 l -4.92267,-11.197344 -4.95734,11.197344 q -0.312,0.658667 -0.86667,1.005334 -0.55466,0.346667 -1.17867,0.346667 -0.624,-0.03467 -1.144,-0.381333 -0.52,-0.346667 -0.728,-0.936001 l -6.82934,-20.106685 q -0.104,-0.381334 -0.104,-0.693334 0,-0.970668 0.69334,-1.594668 0.728,-0.658668 1.59467,-0.658668 0.69333,0 1.248,0.381334 0.55466,0.346667 0.76266,0.970667 l 5.16534,15.669348 4.50667,-10.81601 q 0.27734,-0.624 0.79734,-0.970667 0.52,-0.381334 1.17866,-0.346667 0.65867,-0.03467 1.14401,0.346667 0.52,0.346667 0.79733,0.970667 l 4.264,10.71201 5.13068,-15.565348 q 0.208,-0.624 0.76266,-0.970667 0.58934,-0.381334 1.28267,-0.381334 z"
         style="-inkscape-font-specification:'Quicksand Bold'"
         id="path113231" />
      <path
         d="m 256.56403,66.294773 q 0,2.773336 -1.248,4.992004 -1.24801,2.184002 -3.43201,3.397337 -2.14933,1.213334 -4.74933,1.213334 -2.63467,0 -4.78401,-1.213334 -2.14933,-1.213335 -3.39734,-3.397337 -1.248,-2.218668 -1.248,-4.992004 0,-2.773336 1.248,-4.957338 1.24801,-2.218669 3.39734,-3.432003 2.14934,-1.248001 4.78401,-1.248001 2.6,0 4.74933,1.248001 2.184,1.213334 3.43201,3.432003 1.248,2.184002 1.248,4.957338 z m -4.16001,0 q 0,-1.698668 -0.728,-3.016003 -0.69333,-1.352001 -1.90667,-2.080002 -1.17866,-0.728001 -2.63466,-0.728001 -1.45601,0 -2.66934,0.728001 -1.17867,0.728001 -1.90667,2.080002 -0.69333,1.317335 -0.69333,3.016003 0,1.698668 0.69333,3.016003 0.728,1.317334 1.90667,2.045335 1.21333,0.728 2.66934,0.728 1.456,0 2.63466,-0.728 1.21334,-0.728001 1.90667,-2.045335 0.728,-1.317335 0.728,-3.016003 z"
         style="-inkscape-font-specification:'Quicksand Bold'"
         id="path113233" />
      <path
         d="m 269.66798,56.657431 q 1.04,0 1.73334,0.589333 0.728,0.589334 0.728,1.386668 0,1.074668 -0.55467,1.629335 -0.55467,0.520001 -1.31733,0.520001 -0.52,0 -1.17867,-0.242667 -0.104,-0.03467 -0.48533,-0.138667 -0.34667,-0.104 -0.76267,-0.104 -0.90134,0 -1.73334,0.554667 -0.832,0.554667 -1.38666,1.698668 -0.52,1.109335 -0.52,2.669336 v 8.216008 q 0,0.901334 -0.58934,1.525334 -0.58933,0.589334 -1.49067,0.589334 -0.90133,0 -1.49066,-0.589334 -0.58934,-0.624 -0.58934,-1.525334 V 59.118766 q 0,-0.901334 0.58934,-1.490668 0.58933,-0.624 1.49066,-0.624 0.90134,0 1.49067,0.624 0.58934,0.589334 0.58934,1.490668 v 0.450667 q 0.79733,-1.421334 2.288,-2.149335 1.49067,-0.762667 3.18933,-0.762667 z"
         style="-inkscape-font-specification:'Quicksand Bold'"
         id="path113235" />
      <path
         d="m 290.5026,71.910778 q 0.65867,0.693334 0.65867,1.560001 0,0.866668 -0.69333,1.456002 -0.65867,0.589334 -1.42134,0.589334 -0.90133,0 -1.52533,-0.693334 l -6.24001,-6.586673 -1.69867,1.560001 v 3.640004 q 0,0.901334 -0.58933,1.525334 -0.58934,0.589334 -1.49067,0.589334 -0.90133,0 -1.49067,-0.589334 -0.58933,-0.624 -0.58933,-1.525334 v -21.42402 q 0,-0.901334 0.58933,-1.490668 0.58934,-0.624001 1.49067,-0.624001 0.90133,0 1.49067,0.624001 0.58933,0.589334 0.58933,1.490668 v 12.826678 l 7.41868,-7.176006 q 0.65866,-0.658667 1.52533,-0.658667 0.76267,0 1.352,0.658667 0.624,0.624 0.624,1.282668 0,0.832 -0.832,1.560001 l -5.23467,4.818671 z"
         style="-inkscape-font-specification:'Quicksand Bold'"
         id="path113237" />
      <path
         d="m 269.87597,114.69761 q 0,0.90133 -0.58934,1.52533 -0.58933,0.58934 -1.49066,0.58934 -0.90134,0 -1.49067,-0.58934 -0.58934,-0.624 -0.58934,-1.52533 v -14.31735 q 0,-0.901333 0.58934,-1.490667 0.58933,-0.624 1.49067,-0.624 0.90133,0 1.49066,0.624 0.58934,0.589334 0.58934,1.490667 z M 267.7613,96.012258 q -1.17867,0 -1.664,-0.381334 -0.48534,-0.381334 -0.48534,-1.352001 v -0.658668 q 0,-0.970667 0.52,-1.352001 0.52001,-0.381334 1.66401,-0.381334 1.21333,0 1.69866,0.381334 0.48534,0.381334 0.48534,1.352001 v 0.658668 q 0,1.005334 -0.52,1.386668 -0.48534,0.346667 -1.69867,0.346667 z"
         style="-inkscape-font-specification:'Quicksand Bold'"
         id="path113239" />
      <path
         d="m 284.05458,97.918926 q 3.53601,0 4.88801,2.114664 1.352,2.08001 1.352,5.78934 v 8.87468 q 0,0.90133 -0.58933,1.52533 -0.58934,0.58934 -1.49067,0.58934 -0.90134,0 -1.49067,-0.58934 -0.58933,-0.624 -0.58933,-1.52533 v -8.87468 q 0,-1.90667 -0.79734,-2.98133 -0.79733,-1.10934 -2.73867,-1.10934 -2.01067,0 -3.15467,1.17867 -1.144,1.144 -1.144,2.912 v 8.87468 q 0,0.90133 -0.58933,1.52533 -0.58934,0.58934 -1.49067,0.58934 -0.90133,0 -1.49067,-0.58934 -0.58933,-0.624 -0.58933,-1.52533 v -14.31735 q 0,-0.901333 0.58933,-1.490667 0.58934,-0.624 1.49067,-0.624 0.90133,0 1.49067,0.624 0.58933,0.589334 0.58933,1.490667 v 0.58934 q 0.936,-1.248006 2.42667,-2.14934 1.52534,-0.901334 3.328,-0.901334 z"
         style="-inkscape-font-specification:'Quicksand Bold'"
         id="path113241" />
      <path
         d="m 157.48686,139.18042 q 2.392,0 4.33333,1.248 1.94134,1.21334 3.05067,3.39734 1.14401,2.184 1.14401,4.95734 0,2.77333 -1.10934,4.992 -1.10933,2.184 -3.05067,3.432 -1.90667,1.21334 -4.22934,1.21334 -1.664,0 -3.15467,-0.65867 -1.456,-0.69333 -2.42666,-1.664 v 6.79467 q 0,0.90134 -0.58934,1.49067 -0.58933,0.624 -1.49067,0.624 -0.90133,0 -1.49066,-0.58933 -0.58934,-0.58934 -0.58934,-1.52534 v -21.25068 q 0,-0.90134 0.58934,-1.49067 0.58933,-0.624 1.49066,-0.624 0.90134,0 1.49067,0.624 0.58934,0.58933 0.58934,1.49067 v 0.13866 q 0.832,-1.04 2.32266,-1.80266 1.49067,-0.79734 3.12001,-0.79734 z m -0.52,15.42668 q 2.21867,0 3.64,-1.664 1.42134,-1.664 1.42134,-4.16 0,-2.49601 -1.42134,-4.12534 -1.38667,-1.664 -3.64,-1.664 -2.25334,0 -3.67467,1.664 -1.42134,1.62933 -1.42134,4.12534 0,2.496 1.42134,4.16 1.42133,1.664 3.67467,1.664 z"
         style="-inkscape-font-specification:'Quicksand Bold'"
         id="path113243" />
      <path
         d="m 179.11885,139.18042 q 1.04,0 1.73333,0.58934 0.728,0.58933 0.728,1.38666 0,1.07467 -0.55466,1.62934 -0.55467,0.52 -1.31734,0.52 -0.52,0 -1.17867,-0.24267 -0.104,-0.0347 -0.48533,-0.13867 -0.34667,-0.104 -0.76267,-0.104 -0.90133,0 -1.73333,0.55467 -0.832,0.55467 -1.38667,1.69867 -0.52,1.10933 -0.52,2.66934 v 8.216 q 0,0.90134 -0.58933,1.52534 -0.58934,0.58933 -1.49067,0.58933 -0.90134,0 -1.49067,-0.58933 -0.58933,-0.624 -0.58933,-1.52534 v -14.31734 q 0,-0.90134 0.58933,-1.49067 0.58933,-0.624 1.49067,-0.624 0.90133,0 1.49067,0.624 0.58933,0.58933 0.58933,1.49067 v 0.45066 q 0.79733,-1.42133 2.288,-2.14933 1.49067,-0.76267 3.18934,-0.76267 z"
         style="-inkscape-font-specification:'Quicksand Bold'"
         id="path113245" />
      <path
         d="m 201.58276,148.81776 q 0,2.77334 -1.248,4.99201 -1.248,2.184 -3.432,3.39733 -2.14934,1.21334 -4.74934,1.21334 -2.63467,0 -4.78401,-1.21334 -2.14933,-1.21333 -3.39733,-3.39733 -1.248,-2.21867 -1.248,-4.99201 0,-2.77333 1.248,-4.95733 1.248,-2.21867 3.39733,-3.43201 2.14934,-1.248 4.78401,-1.248 2.6,0 4.74934,1.248 2.184,1.21334 3.432,3.43201 1.248,2.184 1.248,4.95733 z m -4.16,0 q 0,-1.69866 -0.72801,-3.016 -0.69333,-1.352 -1.90666,-2.08 -1.17867,-0.728 -2.63467,-0.728 -1.456,0 -2.66934,0.728 -1.17867,0.728 -1.90667,2.08 -0.69333,1.31734 -0.69333,3.016 0,1.69867 0.69333,3.01601 0.728,1.31733 1.90667,2.04533 1.21334,0.728 2.66934,0.728 1.456,0 2.63467,-0.728 1.21333,-0.728 1.90666,-2.04533 0.72801,-1.31734 0.72801,-3.01601 z"
         style="-inkscape-font-specification:'Quicksand Bold'"
         id="path113247" />
      <path
         d="m 220.40672,139.18042 q 0.90134,0 1.49067,0.58934 0.58933,0.58933 0.58933,1.52533 v 15.42668 q 0,4.22934 -2.63467,6.24001 -2.6,2.04533 -6.62134,2.04533 -1.04,0 -2.87733,-0.34667 -1.80267,-0.34666 -2.56534,-0.69333 -1.69867,-0.728 -1.69867,-2.01067 0,-0.24266 0.104,-0.55467 0.20801,-0.76266 0.69334,-1.17866 0.52,-0.38134 1.10933,-0.38134 0.34667,0 0.65867,0.104 0.13867,0.0347 1.69867,0.624 1.59467,0.624 2.87733,0.624 2.56534,0 3.81334,-1.04 1.28267,-1.00533 1.28267,-2.87733 v -1.664 q -0.76267,1.07466 -2.32267,1.94133 -1.52533,0.86667 -3.29334,0.86667 -2.42666,0 -4.43733,-1.21334 -1.97601,-1.248 -3.12001,-3.432 -1.144,-2.184 -1.144,-4.95734 0,-2.77333 1.10934,-4.95733 1.144,-2.21867 3.08533,-3.43201 1.97601,-1.248 4.36801,-1.248 1.768,0 3.29333,0.728 1.52534,0.728 2.46134,1.768 v -0.38133 q 0,-0.90133 0.58933,-1.49067 0.58934,-0.624 1.49067,-0.624 z m -7.17601,15.42668 q 2.32267,0 3.77867,-1.62933 1.49067,-1.664 1.49067,-4.16001 0,-2.496 -1.49067,-4.16 -1.456,-1.664 -3.77867,-1.664 -2.32266,0 -3.77867,1.664 -1.456,1.664 -1.456,4.16 0,2.49601 1.456,4.16001 1.45601,1.62933 3.77867,1.62933 z"
         style="-inkscape-font-specification:'Quicksand Bold'"
         id="path113249" />
      <path
         d="m 236.63072,139.18042 q 1.04,0 1.73333,0.58934 0.728,0.58933 0.728,1.38666 0,1.07467 -0.55467,1.62934 -0.55466,0.52 -1.31733,0.52 -0.52,0 -1.17867,-0.24267 -0.104,-0.0347 -0.48533,-0.13867 -0.34667,-0.104 -0.76267,-0.104 -0.90133,0 -1.73333,0.55467 -0.832,0.55467 -1.38667,1.69867 -0.52,1.10933 -0.52,2.66934 v 8.216 q 0,0.90134 -0.58934,1.52534 -0.58933,0.58933 -1.49066,0.58933 -0.90134,0 -1.49067,-0.58933 -0.58934,-0.624 -0.58934,-1.52534 v -14.31734 q 0,-0.90134 0.58934,-1.49067 0.58933,-0.624 1.49067,-0.624 0.90133,0 1.49066,0.624 0.58934,0.58933 0.58934,1.49067 v 0.45066 q 0.79733,-1.42133 2.288,-2.14933 1.49067,-0.76267 3.18934,-0.76267 z"
         style="-inkscape-font-specification:'Quicksand Bold'"
         id="path113251" />
      <path
         d="m 257.91596,148.3671 q -0.0347,0.832 -0.65867,1.352 -0.624,0.52 -1.456,0.52 h -11.44001 q 0.416,2.04533 1.90667,3.224 1.49067,1.144 3.36267,1.144 1.42133,0 2.21867,-0.24266 0.79733,-0.27734 1.248,-0.55467 0.48533,-0.312 0.65867,-0.416 0.624,-0.312 1.17866,-0.312 0.728,0 1.248,0.52 0.52,0.52 0.52,1.21333 0,0.936 -0.97066,1.69867 -0.97067,0.79733 -2.60001,1.352 -1.62933,0.55467 -3.29333,0.55467 -2.912,0 -5.09601,-1.21334 -2.14933,-1.21333 -3.328,-3.328 -1.17867,-2.14933 -1.17867,-4.81867 0,-2.98134 1.248,-5.23467 1.24801,-2.25334 3.29334,-3.432 2.04534,-1.21334 4.368,-1.21334 2.28801,0 4.29868,1.248 2.04533,1.248 3.25866,3.36267 1.21334,2.11467 1.21334,4.57601 z m -8.77068,-5.37334 q -4.02133,0 -4.74933,3.77867 h 9.08267 v -0.24267 q -0.13867,-1.456 -1.42133,-2.496 -1.28267,-1.04 -2.91201,-1.04 z"
         style="-inkscape-font-specification:'Quicksand Bold'"
         id="path113253" />
      <path
         d="m 260.30796,155.19644 q -0.312,-0.416 -0.312,-1.04 0,-0.90134 0.90133,-1.52534 0.48534,-0.312 1.00534,-0.312 0.728,0 1.38666,0.65867 1.04001,1.07466 2.14934,1.59467 1.144,0.52 2.73867,0.52 2.704,-0.104 2.704,-2.04534 0,-1.00533 -0.936,-1.52533 -0.90133,-0.52 -2.84267,-1.04001 -2.01067,-0.55466 -3.29334,-1.10933 -1.248,-0.55467 -2.184,-1.664 -0.90133,-1.144 -0.90133,-3.05067 0,-1.664 0.936,-2.87734 0.97067,-1.248 2.496,-1.90666 1.56,-0.69334 3.29334,-0.69334 1.768,0 3.536,0.65867 1.768,0.65867 2.77334,1.94133 0.45066,0.55467 0.45066,1.248 0,0.79734 -0.65866,1.31734 -0.48534,0.38133 -1.10934,0.38133 -0.76266,0 -1.248,-0.48533 -0.624,-0.76267 -1.62933,-1.21334 -0.97067,-0.45066 -2.21867,-0.45066 -2.63467,0 -2.63467,1.90667 0,0.76266 0.48533,1.248 0.48534,0.45066 1.21334,0.728 0.76266,0.24266 2.11467,0.624 1.872,0.52 3.12,1.07467 1.248,0.55466 2.11467,1.69866 0.86666,1.14401 0.86666,3.01601 0,1.69867 -1.00533,2.98133 -1.00533,1.248 -2.6,1.90667 -1.56,0.65867 -3.22401,0.65867 -2.288,0 -4.264,-0.76267 -1.976,-0.76267 -3.224,-2.46133 z"
         style="-inkscape-font-specification:'Quicksand Bold'"
         id="path113255" />
      <path
         d="m 277.01725,155.19644 q -0.312,-0.416 -0.312,-1.04 0,-0.90134 0.90133,-1.52534 0.48534,-0.312 1.00534,-0.312 0.728,0 1.38666,0.65867 1.04,1.07466 2.14934,1.59467 1.144,0.52 2.73867,0.52 2.704,-0.104 2.704,-2.04534 0,-1.00533 -0.936,-1.52533 -0.90133,-0.52 -2.84267,-1.04001 -2.01067,-0.55466 -3.29334,-1.10933 -1.248,-0.55467 -2.184,-1.664 -0.90133,-1.144 -0.90133,-3.05067 0,-1.664 0.936,-2.87734 0.97067,-1.248 2.496,-1.90666 1.56,-0.69334 3.29334,-0.69334 1.768,0 3.536,0.65867 1.768,0.65867 2.77334,1.94133 0.45066,0.55467 0.45066,1.248 0,0.79734 -0.65866,1.31734 -0.48534,0.38133 -1.10934,0.38133 -0.76267,0 -1.248,-0.48533 -0.624,-0.76267 -1.62933,-1.21334 -0.97067,-0.45066 -2.21867,-0.45066 -2.63467,0 -2.63467,1.90667 0,0.76266 0.48533,1.248 0.48534,0.45066 1.21334,0.728 0.76266,0.24266 2.11467,0.624 1.872,0.52 3.12,1.07467 1.248,0.55466 2.11467,1.69866 0.86666,1.14401 0.86666,3.01601 0,1.69867 -1.00533,2.98133 -1.00533,1.248 -2.6,1.90667 -1.56,0.65867 -3.22401,0.65867 -2.288,0 -4.264,-0.76267 -1.976,-0.76267 -3.224,-2.46133 z"
         style="-inkscape-font-specification:'Quicksand Bold'"
         id="path113257" />
    </g>
    <g
       aria-label="don't ship yet"
       id="text13199-3"
       style="font-size:32px;text-align:center;text-anchor:middle">
      <path
         d="m 70.951137,249.56463 q 0.832,0 1.376,0.544 0.544,0.544 0.544,1.408 v 19.776 q 0,0.832 -0.544,1.408 -0.544,0.544 -1.376,0.544 -0.832,0 -1.376,-0.544 -0.512,-0.544 -0.544,-1.376 -0.8,0.928 -2.176,1.6 -1.344,0.64 -2.848,0.64 -2.208,0 -4,-1.12 -1.792,-1.152 -2.848,-3.168 -1.024,-2.016 -1.024,-4.576 0,-2.56 1.024,-4.576 1.024,-2.048 2.784,-3.168 1.792,-1.152 3.936,-1.152 1.536,0 2.88,0.576 1.344,0.544 2.272,1.408 v -6.272 q 0,-0.832 0.544,-1.376 0.544,-0.576 1.376,-0.576 z m -6.464,20.48 q 2.08,0 3.392,-1.504 1.312,-1.536 1.312,-3.84 0,-2.304 -1.312,-3.84 -1.312,-1.536 -3.392,-1.536 -2.048,0 -3.36,1.536 -1.312,1.536 -1.312,3.84 0,2.304 1.28,3.84 1.312,1.504 3.392,1.504 z"
         style="-inkscape-font-specification:'Quicksand Bold'"
         id="path113288" />
      <path
         d="m 93.479111,264.70063 q 0,2.56 -1.152,4.608 -1.152,2.016 -3.168,3.136 -1.984,1.12 -4.384,1.12 -2.432,0 -4.416,-1.12 -1.984,-1.12 -3.136,-3.136 -1.152,-2.048 -1.152,-4.608 0,-2.56 1.152,-4.576 1.152,-2.048 3.136,-3.168 1.984,-1.152 4.416,-1.152 2.4,0 4.384,1.152 2.016,1.12 3.168,3.168 1.152,2.016 1.152,4.576 z m -3.84,0 q 0,-1.568 -0.672,-2.784 -0.64,-1.248 -1.76,-1.92 -1.088,-0.672 -2.432,-0.672 -1.344,0 -2.464,0.672 -1.088,0.672 -1.76,1.92 -0.64,1.216 -0.64,2.784 0,1.568 0.64,2.784 0.672,1.216 1.76,1.888 1.12,0.672 2.464,0.672 1.344,0 2.432,-0.672 1.12,-0.672 1.76,-1.888 0.672,-1.216 0.672,-2.784 z"
         style="-inkscape-font-specification:'Quicksand Bold'"
         id="path113290" />
      <path
         d="m 105.83106,255.80463 q 3.264,0 4.512,1.952 1.248,1.92 1.248,5.344 v 8.192 q 0,0.832 -0.544,1.408 -0.544,0.544 -1.376,0.544 -0.832,0 -1.376,-0.544 -0.544,-0.576 -0.544,-1.408 v -8.192 q 0,-1.76 -0.736,-2.752 -0.736,-1.024 -2.528,-1.024 -1.856,0 -2.912,1.088 -1.056,1.056 -1.056,2.688 v 8.192 q 0,0.832 -0.544,1.408 -0.544,0.544 -1.376,0.544 -0.832,0 -1.376,-0.544 -0.544,-0.576 -0.544,-1.408 v -13.216 q 0,-0.832 0.544,-1.376 0.544,-0.576 1.376,-0.576 0.832,0 1.376,0.576 0.544,0.544 0.544,1.376 v 0.544 q 0.864,-1.152 2.24,-1.984 1.408,-0.832 3.072,-0.832 z"
         style="-inkscape-font-specification:'Quicksand Bold'"
         id="path113292" />
      <path
         d="m 115.27102,252.38063 q 0.128,-1.536 1.664,-1.536 h 0.992 q 0.704,0 1.056,0.32 0.384,0.288 0.384,0.832 0,0.32 -0.128,0.672 l -2.176,6.688 q -0.384,1.056 -1.376,1.056 -0.512,0 -0.768,-0.32 -0.224,-0.352 -0.16,-0.992 z"
         style="-inkscape-font-specification:'Quicksand Bold'"
         id="path113294" />
      <path
         d="m 130.79102,269.62863 q 0.448,0 0.8,0.448 0.384,0.416 0.384,1.12 0,0.864 -0.96,1.472 -0.928,0.576 -2.112,0.576 -1.984,0 -3.36,-0.832 -1.344,-0.864 -1.344,-3.616 v -8.832 h -1.472 q -0.768,0 -1.28,-0.512 -0.512,-0.512 -0.512,-1.28 0,-0.736 0.512,-1.216 0.512,-0.512 1.28,-0.512 h 1.472 v -2.048 q 0,-0.832 0.544,-1.376 0.576,-0.576 1.408,-0.576 0.8,0 1.344,0.576 0.544,0.544 0.544,1.376 v 2.048 h 2.272 q 0.768,0 1.28,0.512 0.512,0.512 0.512,1.28 0,0.736 -0.512,1.248 -0.512,0.48 -1.28,0.48 h -2.272 v 8.672 q 0,0.672 0.352,0.992 0.352,0.288 0.96,0.288 0.256,0 0.704,-0.128 0.384,-0.16 0.736,-0.16 z"
         style="-inkscape-font-specification:'Quicksand Bold'"
         id="path113296" />
      <path
         d="m 143.59093,270.58863 q -0.288,-0.384 -0.288,-0.96 0,-0.832 0.832,-1.408 0.448,-0.288 0.928,-0.288 0.672,0 1.28,0.608 0.96,0.992 1.984,1.472 1.056,0.48 2.528,0.48 2.496,-0.096 2.496,-1.888 0,-0.928 -0.864,-1.408 -0.832,-0.48 -2.624,-0.96 -1.856,-0.512 -3.04,-1.024 -1.152,-0.512 -2.016,-1.536 -0.832,-1.056 -0.832,-2.816 0,-1.536 0.864,-2.656 0.896,-1.152 2.304,-1.76 1.44,-0.64 3.04,-0.64 1.632,0 3.264,0.608 1.632,0.608 2.56,1.792 0.416,0.512 0.416,1.152 0,0.736 -0.608,1.216 -0.448,0.352 -1.024,0.352 -0.704,0 -1.152,-0.448 -0.576,-0.704 -1.504,-1.12 -0.896,-0.416 -2.048,-0.416 -2.432,0 -2.432,1.76 0,0.704 0.448,1.152 0.448,0.416 1.12,0.672 0.704,0.224 1.952,0.576 1.728,0.48 2.88,0.992 1.152,0.512 1.952,1.568 0.8,1.056 0.8,2.784 0,1.568 -0.928,2.752 -0.928,1.152 -2.4,1.76 -1.44,0.608 -2.976,0.608 -2.112,0 -3.936,-0.704 -1.824,-0.704 -2.976,-2.272 z"
         style="-inkscape-font-specification:'Quicksand Bold'"
         id="path113298" />
      <path
         d="m 168.99888,255.80463 q 3.168,0 4.384,1.952 1.216,1.92 1.216,5.344 v 8.192 q 0,0.832 -0.544,1.408 -0.544,0.544 -1.376,0.544 -0.832,0 -1.376,-0.544 -0.544,-0.576 -0.544,-1.408 v -8.192 q 0,-1.76 -0.704,-2.752 -0.672,-1.024 -2.4,-1.024 -1.792,0 -2.816,1.088 -0.992,1.056 -0.992,2.688 v 8.192 q 0,0.832 -0.544,1.408 -0.544,0.544 -1.376,0.544 -0.832,0 -1.376,-0.544 -0.544,-0.576 -0.544,-1.408 v -19.776 q 0,-0.832 0.544,-1.376 0.544,-0.576 1.376,-0.576 0.832,0 1.376,0.576 0.544,0.544 0.544,1.376 v 7.072 q 0.864,-1.152 2.176,-1.952 1.344,-0.832 2.976,-0.832 z"
         style="-inkscape-font-specification:'Quicksand Bold'"
         id="path113300" />
      <path
         d="m 182.37483,271.29263 q 0,0.832 -0.544,1.408 -0.544,0.544 -1.376,0.544 -0.832,0 -1.376,-0.544 -0.544,-0.576 -0.544,-1.408 v -13.216 q 0,-0.832 0.544,-1.376 0.544,-0.576 1.376,-0.576 0.832,0 1.376,0.576 0.544,0.544 0.544,1.376 z m -1.952,-17.248 q -1.088,0 -1.536,-0.352 -0.448,-0.352 -0.448,-1.248 v -0.608 q 0,-0.896 0.48,-1.248 0.48,-0.352 1.536,-0.352 1.12,0 1.568,0.352 0.448,0.352 0.448,1.248 v 0.608 q 0,0.928 -0.48,1.28 -0.448,0.32 -1.568,0.32 z"
         style="-inkscape-font-specification:'Quicksand Bold'"
         id="path113302" />
      <path
         d="m 195.17477,255.80463 q 2.208,0 4,1.152 1.792,1.12 2.816,3.136 1.056,2.016 1.056,4.576 0,2.56 -1.024,4.608 -1.024,2.016 -2.816,3.168 -1.76,1.12 -3.904,1.12 -1.536,0 -2.912,-0.608 -1.344,-0.64 -2.24,-1.536 v 6.272 q 0,0.832 -0.544,1.376 -0.544,0.576 -1.376,0.576 -0.832,0 -1.376,-0.544 -0.544,-0.544 -0.544,-1.408 v -19.616 q 0,-0.832 0.544,-1.376 0.544,-0.576 1.376,-0.576 0.832,0 1.376,0.576 0.544,0.544 0.544,1.376 v 0.128 q 0.768,-0.96 2.144,-1.664 1.376,-0.736 2.88,-0.736 z m -0.48,14.24 q 2.048,0 3.36,-1.536 1.312,-1.536 1.312,-3.84 0,-2.304 -1.312,-3.808 -1.28,-1.536 -3.36,-1.536 -2.08,0 -3.392,1.536 -1.312,1.504 -1.312,3.808 0,2.304 1.312,3.84 1.312,1.536 3.392,1.536 z"
         style="-inkscape-font-specification:'Quicksand Bold'"
         id="path113304" />
      <path
         d="m 227.91071,256.12463 q 0.832,0 1.376,0.576 0.544,0.544 0.544,1.376 v 13.6 q 0,4.16 -2.24,6.048 -2.24,1.92 -5.984,1.92 -1.088,0 -2.24,-0.192 -1.12,-0.16 -1.824,-0.448 -1.568,-0.672 -1.568,-1.856 0,-0.224 0.096,-0.512 0.192,-0.704 0.64,-1.088 0.48,-0.352 1.024,-0.352 0.32,0 0.608,0.096 0.224,0.096 0.768,0.32 0.576,0.224 1.184,0.352 0.64,0.16 1.312,0.16 2.272,0 3.328,-0.992 1.088,-0.96 1.088,-3.328 v -0.32 q -1.664,2.08 -5.184,2.08 -1.664,0 -2.944,-0.768 -1.28,-0.8 -1.984,-2.176 -0.704,-1.408 -0.704,-3.2 v -9.344 q 0,-0.832 0.544,-1.376 0.544,-0.576 1.376,-0.576 0.832,0 1.376,0.576 0.544,0.544 0.544,1.376 v 8.192 q 0,2.016 0.864,2.912 0.896,0.864 2.592,0.864 1.664,0 2.56,-0.96 0.928,-0.992 0.928,-2.816 v -8.192 q 0,-0.832 0.544,-1.376 0.544,-0.576 1.376,-0.576 z"
         style="-inkscape-font-specification:'Quicksand Bold'"
         id="path113306" />
      <path
         d="m 249.19067,264.28463 q -0.032,0.768 -0.608,1.248 -0.576,0.48 -1.344,0.48 h -10.56 q 0.384,1.888 1.76,2.976 1.376,1.056 3.104,1.056 1.312,0 2.048,-0.224 0.736,-0.256 1.152,-0.512 0.448,-0.288 0.608,-0.384 0.576,-0.288 1.088,-0.288 0.672,0 1.152,0.48 0.48,0.48 0.48,1.12 0,0.864 -0.896,1.568 -0.896,0.736 -2.4,1.248 -1.504,0.512 -3.04,0.512 -2.688,0 -4.704,-1.12 -1.984,-1.12 -3.072,-3.072 -1.088,-1.984 -1.088,-4.448 0,-2.752 1.152,-4.832 1.152,-2.08 3.04,-3.168 1.888,-1.12 4.032,-1.12 2.112,0 3.968,1.152 1.888,1.152 3.008,3.104 1.12,1.952 1.12,4.224 z m -8.096,-4.96 q -3.712,0 -4.384,3.488 h 8.384 v -0.224 q -0.128,-1.344 -1.312,-2.304 -1.184,-0.96 -2.688,-0.96 z"
         style="-inkscape-font-specification:'Quicksand Bold'"
         id="path113308" />
      <path
         d="m 260.64667,269.62863 q 0.448,0 0.8,0.448 0.384,0.416 0.384,1.12 0,0.864 -0.96,1.472 -0.928,0.576 -2.112,0.576 -1.984,0 -3.36,-0.832 -1.344,-0.864 -1.344,-3.616 v -8.832 h -1.472 q -0.768,0 -1.28,-0.512 -0.512,-0.512 -0.512,-1.28 0,-0.736 0.512,-1.216 0.512,-0.512 1.28,-0.512 h 1.472 v -2.048 q 0,-0.832 0.544,-1.376 0.576,-0.576 1.408,-0.576 0.8,0 1.344,0.576 0.544,0.544 0.544,1.376 v 2.048 h 2.272 q 0.768,0 1.28,0.512 0.512,0.512 0.512,1.28 0,0.736 -0.512,1.248 -0.512,0.48 -1.28,0.48 h -2.272 v 8.672 q 0,0.672 0.352,0.992 0.352,0.288 0.96,0.288 0.256,0 0.704,-0.128 0.384,-0.16 0.736,-0.16 z"
         style="-inkscape-font-specification:'Quicksand Bold'"
         id="path113310" />
    </g>
  </g>
  <metadata
     id="metadata9615">
    <rdf:RDF>
      <cc:Work>
        <dc:format>image/svg+xml</dc:format>
        <dc:type
           rdf:resource="http://purl.org/dc/dcmitype/StillImage" />
        <cc:license
           rdf:resource="http://creativecommons.org/publicdomain/zero/1.0/" />
        <dc:publisher>
          <cc:Agent
             rdf:about="http://openclipart.org/">
            <dc:title>Openclipart</dc:title>
          </cc:Agent>
        </dc:publisher>
        <dc:date>2007-01-13T11:56:18</dc:date>
        <dc:description>A small under construction symbol</dc:description>
        <dc:source>https://openclipart.org/detail/2884/work-by-nebu</dc:source>
        <dc:creator>
          <cc:Agent>
            <dc:title>nebu</dc:title>
          </cc:Agent>
        </dc:creator>
        <dc:subject>
          <rdf:Bag>
            <rdf:li>construction</rdf:li>
            <rdf:li>icon</rdf:li>
            <rdf:li>man</rdf:li>
            <rdf:li>roadsign</rdf:li>
            <rdf:li>sign</rdf:li>
            <rdf:li>symbol</rdf:li>
            <rdf:li>work</rdf:li>
            <rdf:li>yellow</rdf:li>
          </rdf:Bag>
        </dc:subject>
      </cc:Work>
      <cc:License
         rdf:about="http://creativecommons.org/licenses/publicdomain/">
        <cc:permits
           rdf:resource="http://creativecommons.org/ns#Reproduction" />
        <cc:permits
           rdf:resource="http://creativecommons.org/ns#Distribution" />
        <cc:permits
           rdf:resource="http://creativecommons.org/ns#DerivativeWorks" />
      </cc:License>
    </rdf:RDF>
  </metadata>
</svg>
